Lab1_Leo_Zizek/analizator_primjer.vcd
$version Generated by Wokwi.com $end
$date Fri, 04 Apr 2025 12:14:32 GMT $end
$timescale 1ns $end
$scope module logic $end
$var wire 1 ! D0 $end
$var wire 1 " D1 $end
$var wire 1 # D2 $end
$upscope $end
$enddefinitions $end
#0
0!
#0
0"
#0
0#
#191000
1!
#1005804562
1"
#2012388125
0"
#2232163295
0!
#2232200802
1!
#2232204006
0!
#2232252094
1!
#2232253998
0!
#2232292212
1!
#2232307646
0!
#2232349561
1!
#2232386761
0!
#2232427242
1!
#2232474126
0!
#2232492845
1!
#2232499359
0!
#2232543774
1!
#2232562724
0!
#2232592385
1!
#2232596625
0!
#2232620078
1!
#2232674395
0!
#2232725143
1!
#2232779287
0!
#2232787061
1!
#2232821801
0!
#2232844881
1!
#2232871446
0!
#2232887703
1!
#2232919220
0!
#2232968838
1!
#2232969319
0!
#2232990187
1!
#2232991220
0!
#2233010325
1!
#2233022077
0!
#2233068317
1!
#2233111707
0!
#2233123872
1!
#2233135740
0!
#2233152408
1!
#2233161934
0!
#2233216238
1!
#2233236358
0!
#2233254095
1!
#2233295287
0!
#2233305507
1!
#2233322255
0!
#2233356441
1!
#2233394734
0!
#2233412392
1!
#2233438760
0!
#2233467114
1!
#2233479384
0!
#2233529758
1!
#2233572733
0!
#2233613300
1!
#2233661154
0!
#2233683942
1!
#2233725435
0!
#2233733691
1!
#2233781751
0!
#2233802909
1!
#2233843697
0!
#2233851572
1!
#2233870432
0!
#2233876489
1!
#2233893731
0!
#2233938117
1!
#2233980739
0!
#2233989572
1!
#2233996441
0!
#2234041503
1!
#2234059778
0!
#2234085595
1!
#2234098187
0!
#2234102287
1!
#2234112134
0!
#2234126128
1!
#2234181676
0!
#2234221522
1!
#2234237978
0!
#2315337346
1!
#2315405909
0!
#2315466505
1!
#2315466831
0!
#2315539886
1!
#2315587326
0!
#2315598622
1!
#2315635959
0!
#2315662987
1!
#2315665170
0!
#2315665724
1!
#2315667782
0!
#2315686444
1!
#2315733239
0!
#2315786391
1!
#2315821359
0!
#2315822031
1!
#2315824060
0!
#2315862684
1!
#2315901735
0!
#2315933112
1!
#2315962840
0!
#2315966819
1!
#2315979313
0!
#2316003604
1!
#2316018763
0!
#2316053363
1!
#2316073397
0!
#2316097985
1!
#2316121342
0!
#2316171896
1!
#2316209644
0!
#2316278389
1!
#2316286982
0!
#2316304143
1!
#2316309464
0!
#2316349069
1!
#2316379596
0!
#2316399004
1!
#2316423308
0!
#2316434469
1!
#2316475469
0!
#2316516887
1!
#2316587752
0!
#2316647826
1!
#2316667141
0!
#2316689843
1!
#2316751609
0!
#2316789414
1!
#2316792988
0!
#2316817618
1!
#2316888402
0!
#2316920307
1!
#2316979118
0!
#2316981192
1!
#2316998510
0!
#2317059003
1!
#2317088206
0!
#2317146177
1!
#3006446875
1"
#3999460375
0"
#5006044437
1"
#6005324125
0"
#7000426000
1"
#8001792750
0"
#9009420187
1"
#10001390437
0"
#11007978812
1"
#11459653350
0!
#11459721354
1!
#11459796150
0!
#11459817686
1!
#11459855081
0!
#11459889711
1!
#11459962892
0!
#11460016534
1!
#11460067078
0!
#11460098015
1!
#11460139704
0!
#11460178295
1!
#11460249087
0!
#11460306309
1!
#11460356636
0!
#11460406819
1!
#11460424342
0!
#11460465318
1!
#11460494356
0!
#11460512561
1!
#11460586207
0!
#11460606909
1!
#11460620409
0!
#11460641485
1!
#11460664873
0!
#11460687693
1!
#11460742644
0!
#11460788395
1!
#11460843709
0!
#11460891923
1!
#11460900642
0!
#11460924855
1!
#11460963971
0!
#11461031028
1!
#11461081967
0!
#11461102034
1!
#11461149073
0!
#11461223798
1!
#11461293824
0!
#11461301493
1!
#11461372198
0!
#11461439347
1!
#11461457008
0!
#11461510144
1!
#11461527003
0!
#11461573181
1!
#11461574586
0!
#11461575110
1!
#11461632467
0!
#11461655361
1!
#11461663037
0!
#11461682753
1!
#11461705784
0!
#11461774179
1!
#11461829323
0!
#11461875062
1!
#11461913639
0!
#11542793299
1!
#11542803680
0!
#11542816327
1!
#11542830330
0!
#11542831462
1!
#11542843906
0!
#11542866325
1!
#11542868558
0!
#11542879806
1!
#11542895155
0!
#11542906438
1!
#11542915729
0!
#11542927875
1!
#11542946596
0!
#11542961897
1!
#11542963761
0!
#11542966483
1!
#11542983651
0!
#11543006102
1!
#11543013755
0!
#11543014499
1!
#11543023059
0!
#11543035287
1!
#11543058218
0!
#11543075154
1!
#11543087626
0!
#11543088693
1!
#11543096228
0!
#11543117817
1!
#11543139192
0!
#11543158898
1!
#11543168425
0!
#11543168866
1!
#11543188471
0!
#11543199993
1!
#11543219378
0!
#11543236890
1!
#11543236971
0!
#11543244862
1!
#11543253291
0!
#11543268679
1!
#11543284523
0!
#11543285166
1!
#11543303881
0!
#11543324678
1!
#11543328535
0!
#11543340499
1!
#11543356867
0!
#11543365347
1!
#11543382475
0!
#11543388513
1!
#11543408544
0!
#11543419163
1!
#11543432133
0!
#11543454822
1!
#11543464805
0!
#11543476542
1!
#11543490352
0!
#11543496455
1!
#11543502174
0!
#11543509414
1!
#11543527667
0!
#11543538468
1!
#11543559704
0!
#11543569491
1!
#11543585827
0!
#11543603612
1!
#11543614292
0!
#11543622245
1!
#11543629184
0!
#11543634234
1!
#11543648829
0!
#11543653199
1!
#11543653860
0!
#11543668153
1!
#11543678273
0!
#11543684109
1!
#11543690639
0!
#11543702816
1!
#11543720486
0!
#11543728198
1!
#11543730777
0!
#11543743786
1!
#11543755297
0!
#11543772238
1!
#11543785925
0!
#11543801704
1!
#11543815858
0!
#11543829433
1!
#11543834843
0!
#11543835518
1!
#11543849069
0!
#11543849161
1!
#11543870865
0!
#11543881499
1!
#11543893898
0!
#11543898458
1!
#11543898820
0!
#11543915841
1!
#11543927740
0!
#11543945918
1!
#11543964914
0!
#11543976618
1!
#11543981346
0!
#11543992676
1!
#11543999073
0!
#11544020722
1!
#11544026553
0!
#11544035479
1!
#11544051699
0!
#11544054396
1!
#11544059952
0!
#11544072071
1!
#11544088654
0!
#11544097785
1!
#11544108552
0!
#11544122030
1!
#11544127867
0!
#11544145007
1!
#11544145354
0!
#11544145448
1!
#11544156487
0!
#11544177308
1!
#11544195153
0!
#11544196372
1!
#11544214957
0!
#11544216764
1!
#11544229933
0!
#11544252877
1!
#11544253884
0!
#11544276301
1!
#11544279219
0!
#11544298296
1!
#11544307036
0!
#11544324372
1!
#11544339218
0!
#11544350667
1!
#11544373070
0!
#11544394257
1!
#11544394573
0!
#11544415874
1!
#11544424681
0!
#11544442912
1!
#11544450767
0!
#11544451617
1!
#11544459868
0!
#11544464270
1!
#11544487041
0!
#11544500348
1!
#11544515273
0!
#11544524049
1!
#11544543718
0!
#11544552846
1!
#11544556584
0!
#11544571164
1!
#11544571432
0!
#11544573896
1!
#11544581712
0!
#11544598051
1!
#11544618508
0!
#11544641020
1!
#11544656888
0!
#11544668879
1!
#11544672968
0!
#11544680566
1!
#11544699036
0!
#11544702815
1!
#11544719475
0!
#11544724293
1!
#11544743564
0!
#11544745684
1!
#11544760089
0!
#11544765718
1!
#11544773449
0!
#11544788348
1!
#11544791333
0!
#11544799935
1!
#11544811302
0!
#11544822463
1!
#11544836336
0!
#11544855607
1!
#11544856392
0!
#11544858492
1!
#11544880289
0!
#11544887230
1!
#11544905674
0!
#11544913005
1!
#11544914283
0!
#11544917562
1!
#11544922518
0!
#11544938436
1!
#12002040875
0"
#13008624750
1"
#13424811125
1#
#13941145812
0#
#14011035125
0"
#14407280437
1#
#15004049687
1"
#15389549000
0#
#16006448750
0"
#16505552312
1#
#16999462812
1"
#17287987250
0#
#18001861937
0"
#19008450625
1"
#19286359312
1#
#20001460500
0"
#21008048687
1"
#22001061687
0"
#22450600875
1!
