Antonio_Miser_Lab1/wokwi-logic.vcd
$version Generated by Wokwi.com $end
$date Thu, 03 Apr 2025 16:19:01 GMT $end
$timescale 1ns $end
$scope module logic $end
$var wire 1 ! D0 $end
$var wire 1 " D1 $end
$var wire 1 # D2 $end
$var wire 1 $ D3 $end
$upscope $end
$enddefinitions $end
#0
0!
#0
0"
#0
0#
#0
0$
#160875
1!
#165312
1"
#499701062
1#
#499711625
1$
#999733000
0#
#999743437
0$
#1499765000
1#
#1499775562
1$
#1917518156
0!
#1917524877
1!
#1917533496
0!
#1917535026
1!
#1917562407
0!
#1917588093
1!
#1917605117
0!
#1917615440
1!
#1917627219
0!
#1917671592
1!
#1917674447
0!
#1917717810
1!
#1917737910
0!
#1917759392
1!
#1917801593
0!
#1917816647
1!
#1917825142
0!
#1917850360
1!
#1917892665
0!
#1917896480
1!
#1917920138
0!
#1917942876
1!
#1917980635
0!
#1918018405
1!
#1918052031
0!
#1918076215
1!
#1918085307
0!
#1918106954
1!
#1918144398
0!
#1918177242
1!
#1918218014
0!
#1918250211
1!
#1918276771
0!
#1918313200
1!
#1918332986
0!
#1918357293
1!
#1918391772
0!
#1918419435
1!
#1918424783
0!
#1918448459
1!
#1918480260
0!
#1918489459
1!
#1918530519
0!
#1918568287
1!
#1918578074
0!
#1918581224
1!
#1918620539
0!
#1918633891
1!
#1918641754
0!
#1918662974
1!
#1918674139
0!
#1918697425
1!
#1918729249
0!
#1918733446
1!
#1918738433
0!
#1918758162
1!
#1918796579
0!
#1918817999
1!
#1918861924
0!
#1918900407
1!
#1918900557
0!
#1918906098
1!
#1918939939
0!
#1918957691
1!
#1918960424
0!
#1919003242
1!
#1919013262
0!
#1919041646
1!
#1919051631
0!
#1919089526
1!
#1919130266
0!
#1919151484
1!
#1919174645
0!
#1919176581
1!
#1919191117
0!
#1919210507
1!
#1919223909
0!
#1919253844
1!
#1919270322
0!
#1919299400
1!
#1919318424
0!
#1919357248
1!
#1919397411
0!
#1919430656
1!
#1919444971
0!
#1919461135
1!
#1919494288
0!
#1919535779
1!
#1919536157
0!
#1919558052
1!
#1919574889
0!
#1919590140
1!
#1919630582
0!
#1919631291
1!
#1919636224
0!
#1919654177
1!
#1919679899
0!
#1919686655
1!
#1919699588
0!
#1999796875
0#
#2000885578
1!
#2000899747
0!
#2000910336
1!
#2000923825
0!
#2000943483
1!
#2000973093
0!
#2000986226
1!
#2001017876
0!
#2001033367
1!
#2001044698
0!
#2001057213
1!
#2001079114
0!
#2001088035
1!
#2001093086
0!
#2001099548
1!
#2001129763
0!
#2001150869
1!
#2001167395
0!
#2001184115
1!
#2001192138
0!
#2001203996
1!
#2001230677
0!
#2001253002
1!
#2001256268
0!
#2001275842
1!
#2001277783
0!
#2001279702
1!
#2001308105
0!
#2001316925
1!
#2001323056
0!
#2001325442
1!
#2001350104
0!
#2001370178
1!
#2001390541
0!
#2001404552
1!
#2001416618
0!
#2001432507
1!
#2001448560
0!
#2001471056
1!
#2001471339
0!
#2001502388
1!
#2001503595
0!
#2001508938
1!
#2001524941
0!
#2001539899
1!
#2001567180
0!
#2001577500
1!
#2001578141
0!
#2001584168
1!
#2001602838
0!
#2001614707
1!
#2001617425
0!
#2001637213
1!
#2001661274
0!
#2001675734
1!
#2001676806
0!
#2001698002
1!
#2001717638
0!
#2001736273
1!
#2001747414
0!
#2001776049
1!
#2001783240
0!
#2001811444
1!
#2001813654
0!
#2001840730
1!
#2001855223
0!
#2001886856
1!
#2001892454
0!
#2001899584
1!
#2001929544
0!
#2001940117
1!
#2001948546
0!
#2001964488
1!
#2001974746
0!
#2001992667
1!
#2002000749
0!
#2002029913
1!
#2002036867
0!
#2002062040
1!
#2002071308
0!
#2002084055
1!
#2002109881
0!
#2002123742
1!
#2002153183
0!
#2002170121
1!
#2002196056
0!
#2002197918
1!
#2002213029
0!
#2002234387
1!
#2002235134
0!
#2002257131
1!
#2002285824
0!
#2002316835
1!
#2002346305
0!
#2002369675
1!
#2002378882
0!
#2002384217
1!
#2002388309
0!
#2002401283
1!
#2002410203
0!
#2002415135
1!
#2002421584
0!
#2002423416
1!
#2002430194
0!
#2002445840
1!
#2002476896
0!
#2002489918
1!
#2002506322
0!
#2002521871
1!
#2002527294
0!
#2002528001
1!
#2002528543
0!
#2002554367
1!
#2002569232
0!
#2002583206
1!
#2002608517
0!
#2002634938
1!
#2002662046
0!
#2002688828
1!
#2002694973
0!
#2002708711
1!
#2002709677
0!
#2002731762
1!
#2002747700
0!
#2002776924
1!
#2002781747
0!
#2002804572
1!
#2002830432
0!
#2002857575
1!
#2002864644
0!
#2002868516
1!
#2002878859
0!
#2002906621
1!
#2002928644
0!
#2002942586
1!
#2002971031
0!
#2003001952
1!
#2003005656
0!
#2003019461
1!
#2499829000
1#
#2999860875
0#
#3499893125
1#
#3901718458
0!
#3901755600
1!
#3901780754
0!
#3901786739
1!
#3901805785
0!
#3901838533
1!
#3901872778
0!
#3901890927
1!
#3901923863
0!
#3901959386
1!
#3901984379
0!
#3901987223
1!
#3902003651
0!
#3902030815
1!
#3902055358
0!
#3902065198
1!
#3902097904
0!
#3902110863
1!
#3902133012
0!
#3902142777
1!
#3902169310
0!
#3902180894
1!
#3902199922
0!
#3902221470
1!
#3902245981
0!
#3902250146
1!
#3902254560
0!
#3902290651
1!
#3902314316
0!
#3902344067
1!
#3902377169
0!
#3902381723
1!
#3902394739
0!
#3902434621
1!
#3902476182
0!
#3902497190
1!
#3902499365
0!
#3902514711
1!
#3902522747
0!
#3902526748
1!
#3902545027
0!
#3902584770
1!
#3902590948
0!
#3902621836
1!
#3902634617
0!
#3902642089
1!
#3902642788
0!
#3902675004
1!
#3902675115
0!
#3902696060
1!
#3902727389
0!
#3902763631
1!
#3902788037
0!
#3902803552
1!
#3902834953
0!
#3902874578
1!
#3902909704
0!
#3902940502
1!
#3902950821
0!
#3902986211
1!
#3903027825
0!
#3903036790
1!
#3903075964
0!
#3903116237
1!
#3903145907
0!
#3903177144
1!
#3903200917
0!
#3903239484
1!
#3903278830
0!
#3903282775
1!
#3903295322
0!
#3903295494
1!
#3903309828
0!
#3903315063
1!
#3903336802
0!
#3903348279
1!
#3903382889
0!
#3903416773
1!
#3903420285
0!
#3903434174
1!
#3903450656
0!
#3903465066
1!
#3903497437
0!
#3903536203
1!
#3903559952
0!
#3903574649
1!
#3903583944
0!
#3903603570
1!
#3903638584
0!
#3903672840
1!
#3903677252
0!
#3903712411
1!
#3903743352
0!
#3903748561
1!
#3903778445
0!
#3903821161
1!
#3903845197
0!
#3903880097
1!
#3903913915
0!
#3903928032
1!
#3903958959
0!
#3903982261
1!
#3904003486
0!
#3999924875
0#
#3999935312
0$
#4001782399
1!
#4001787508
0!
#4001790674
1!
#4001815350
0!
#4001820641
1!
#4001822746
0!
#4001832097
1!
#4001865666
0!
#4001886438
1!
#4001910219
0!
#4001924892
1!
#4001975803
0!
#4001977248
1!
#4001998265
0!
#4002018700
1!
#4002055383
0!
#4002064856
1!
#4002083876
0!
#4002098006
1!
#4002113937
0!
#4002120283
1!
#4002126295
0!
#4002130830
1!
#4002172342
0!
#4002195700
1!
#4002242698
0!
#4002286549
1!
#4002300365
0!
#4002305134
1!
#4002356458
0!
#4002365135
1!
#4002381885
0!
#4002390792
1!
#4002411935
0!
#4002429779
1!
#4002455362
0!
#4002502859
1!
#4002548916
0!
#4002554241
1!
#4002562120
0!
#4002583672
1!
#4002612787
0!
#4002652060
1!
#4002700601
0!
#4002705149
1!
#4002726961
0!
#4002740733
1!
#4002770595
0!
#4002779238
1!
#4002826913
0!
#4002851637
1!
#4002883705
0!
#4002929331
1!
#4002980320
0!
#4003003770
1!
#4003020006
0!
#4003049530
1!
#4003073589
0!
#4003103151
1!
#4003123268
0!
#4003165795
1!
#4003179623
0!
#4003183447
1!
#4003190749
0!
#4003239709
1!
#4003245890
0!
#4003271505
1!
#4003276998
0!
#4003322363
1!
#4003345311
0!
#4003358114
1!
#4003403614
0!
#4003412742
1!
#4003442681
0!
#4003450563
1!
#4003452833
0!
#4003481447
1!
#4003481576
0!
#4003525810
1!
#4003555488
0!
#4003594083
1!
#4003594459
0!
#4003595959
1!
#4003624539
0!
#4003629396
1!
#4499957062
1#
#4499967625
1$
#4802030360
0!
#4802073525
1!
#4802101210
0!
#4802154780
1!
#4802172349
0!
#4802222263
1!
#4802245555
0!
#4802254138
1!
#4802272345
0!
#4802296233
1!
#4802345312
0!
#4802400948
1!
#4802441684
0!
#4802497118
1!
#4802516410
0!
#4802570511
1!
#4802619753
0!
#4802660936
1!
#4802703718
0!
#4802757186
1!
#4802805559
0!
#4802823613
1!
#4802831116
0!
#4802860675
1!
#4802876457
0!
#4802887017
1!
#4802893315
0!
#4802939095
1!
#4802992680
0!
#4803034761
1!
#4803058400
0!
#4803070348
1!
#4803098211
0!
#4803117159
1!
#4803132996
0!
#4803163961
1!
#4803194048
0!
#4803244982
1!
#4803278668
0!
#4803332719
1!
#4803351678
0!
#4803379263
1!
#4803386591
0!
#4803406923
1!
#4803450832
0!
#4803490189
1!
#4803494677
0!
#4803498097
1!
#4803519022
0!
#4803519917
1!
#4803539371
0!
#4803552910
1!
#4803587121
0!
#4803624428
1!
#4803644263
0!
#4803665630
1!
#4803688511
0!
#4803728041
1!
#4803761496
0!
#4803791699
1!
#4803843612
0!
#4803873548
1!
#4803875082
0!
#4803884999
1!
#4803929216
0!
#4803970691
1!
#4803994765
0!
#4804027888
1!
#4804081579
0!
#4804132818
1!
#4804141082
0!
#4804156525
1!
#4804184771
0!
#4804224262
1!
#4804260328
0!
#4804264371
1!
#4804272952
0!
#4804306248
1!
#4804344684
0!
#4885296978
1!
#4885298910
0!
#4885307369
1!
#4885326164
0!
#4885335119
1!
#4885354280
0!
#4885368637
1!
#4885379429
0!
#4885388535
1!
#4885392943
0!
#4885407921
1!
#4885414890
0!
#4885420566
1!
#4885433749
0!
#4885446215
1!
#4885468015
0!
#4885481491
1!
#4885481626
0!
#4885496816
1!
#4885498591
0!
#4885519497
1!
#4885521864
0!
#4885528253
1!
#4885542892
0!
#4885544289
1!
#4885554206
0!
#4885555715
1!
#4885575988
0!
#4885595614
1!
#4885606396
0!
#4885620902
1!
#4885624304
0!
#4885642095
1!
#4885660340
0!
#4885679561
1!
#4885693705
0!
#4885695246
1!
#4885697978
0!
#4885698780
1!
#4885714873
0!
#4885718289
1!
#4885740038
0!
#4885746832
1!
#4885757576
0!
#4885763664
1!
#4885766686
0!
#4885776015
1!
#4885796016
0!
#4885810556
1!
#4885826426
0!
#4885836562
1!
#4885847973
0!
#4885861689
1!
#4885871296
0!
#4885892673
1!
#4885896967
0!
#4885916836
1!
#4885934997
0!
#4885941905
1!
#4885948132
0!
#4885956140
1!
#4885970414
0!
#4885987113
1!
#4885989176
0!
#4885995405
1!
#4886000586
0!
#4886021006
1!
#4886024170
0!
#4886032749
1!
#4886048698
0!
#4886051931
1!
#4886059557
0!
#4886073641
1!
#4886083398
0!
#4886091968
1!
#4886099415
0!
#4886118725
1!
#4886118793
0!
#4886121004
1!
#4886126755
0!
#4886148717
1!
#4886159792
0!
#4886169253
1!
#4886172167
0!
#4886177327
1!
#4886182741
0!
#4886191580
1!
#4886194453
0!
#4886205862
1!
#4886224081
0!
#4886233979
1!
#4886240853
0!
#4886259450
1!
#4886264467
0!
#4886268235
1!
#4886271171
0!
#4886273846
1!
#4886282206
0!
#4886288536
1!
#4886295416
0!
#4886299460
1!
#4886310739
0!
#4886319960
1!
#4886320168
0!
#4886329489
1!
#4886346609
0!
#4886351469
1!
#4886364518
0!
#4886378913
1!
#4886392708
0!
#4886410367
1!
#4886426632
0!
#4886438918
1!
#4886440483
0!
#4886453608
1!
#4886468687
0!
#4886476256
1!
#4886484937
0!
#4886499881
1!
#4886517786
0!
#4886534846
1!
#4886536996
0!
#4886541029
1!
#4886556411
0!
#4886562539
1!
#4886578814
0!
#4886598238
1!
#4886613810
0!
#4886627050
1!
#4886642111
0!
#4886654147
1!
#4886672647
0!
#4886680605
1!
#4886680892
0!
#4886700865
1!
#4886714655
0!
#4886715920
1!
#4886722442
0!
#4886743812
1!
#4886745770
0!
#4886746405
1!
#4886759102
0!
#4886773802
1!
#4886786631
0!
#4886798314
1!
#4886816268
0!
#4886833923
1!
#4886836250
0!
#4886849739
1!
#4886863712
0!
#4886864824
1!
#4886875177
0!
#4886897220
1!
#4886902117
0!
#4886908320
1!
#4886925993
0!
#4886947618
1!
#4886950019
0!
#4886965952
1!
#4886987702
0!
#4887007299
1!
#4887009938
0!
#4887014839
1!
#4887033646
0!
#4887052843
1!
#4887064582
0!
#4887077290
1!
#4887096618
0!
#4887102020
1!
#4887110252
0!
#4887131163
1!
#4887133358
0!
#4887154448
1!
#4887165581
0!
#4887185847
1!
#4887196770
0!
#4887212505
1!
#4887223267
0!
#4887239907
1!
#4887248481
0!
#4887257250
1!
#4887262297
0!
#4887275340
1!
#4887290615
0!
#4887299987
1!
#4887319129
0!
#4887329116
1!
#4887332837
0!
#4887347357
1!
#4887364119
0!
#4887380124
1!
#4887400865
0!
#4887403929
1!
#4887415067
0!
#4887417141
1!
#4887438863
0!
#4887443103
1!
#4887461952
0!
#4887482761
1!
#4999988875
0#
#5319006756
0"
#5319029551
1"
#5319030991
0"
#5319049320
1"
#5319067737
0"
#5319072751
1"
#5319076950
0"
#5319086687
1"
#5319095316
0"
#5319097881
1"
#5319117606
0"
#5319140776
1"
#5319161142
0"
#5319168762
1"
#5319182460
0"
#5319187463
1"
#5319210463
0"
#5319214083
1"
#5319234014
0"
#5319251820
1"
#5319271221
0"
#5319288329
1"
#5319291411
0"
#5319316006
1"
#5319325264
0"
#5319333059
1"
#5319335934
0"
#5319348917
1"
#5319363204
0"
#5319387258
1"
#5319406660
0"
#5319420659
1"
#5319445062
0"
#5319463050
1"
#5319463809
0"
#5319466769
1"
#5319471233
0"
#5319492213
1"
#5319512817
0"
#5319522247
1"
#5319544027
0"
#5319557155
1"
#5319567881
0"
#5319593262
1"
#5319615926
0"
#5319624466
1"
#5319648179
0"
#5319667735
1"
#5319678947
0"
#5319704695
1"
#5319729643
0"
#5319738683
1"
#5319751482
0"
#5319768303
1"
#5319781675
0"
#5319792092
1"
#5319804631
0"
#5319810116
1"
#5319813766
0"
#5319822862
1"
#5319826182
0"
#5319839234
1"
#5319843340
0"
#5319859126
1"
#5319864003
0"
#5319864276
1"
#5319886838
0"
#5319908779
1"
#5319935331
0"
#5319948833
1"
#5319969510
0"
#5319985131
1"
#5320002487
0"
#5320022821
1"
#5320029831
0"
#5320046469
1"
#5320060134
0"
#5320075096
1"
#5320102133
0"
#5320128606
1"
#5320150376
0"
#5320175497
1"
#5320202714
0"
#5320203170
1"
#5320204244
0"
#5320224595
1"
#5320225030
0"
#5320226259
1"
#5320232164
0"
#5320233625
1"
#5320256107
0"
#5320271540
1"
#5320289621
0"
#5320290905
1"
#5320297617
0"
#5320323281
1"
#5320350603
0"
#5320359096
1"
#5320376825
0"
#5320387780
1"
#5320402570
0"
#5320409530
1"
#5320421769
0"
#5320444549
1"
#5320444909
0"
#5320451561
1"
#5320462589
0"
#5320478714
1"
#5320487621
0"
#5320489319
1"
#5320498178
0"
#5320503846
1"
#5320507178
0"
#5320507996
1"
#5320535135
0"
#5320550485
1"
#5320553009
0"
#5320556128
1"
#5320579489
0"
#5320589011
1"
#5320593863
0"
#5320606024
1"
#5320622423
0"
#5320648336
1"
#5320661502
0"
#5320662242
1"
#5320668704
0"
#5320693005
1"
#5320717750
0"
#5320733520
1"
#5320760673
0"
#5320776062
1"
#5320790563
0"
#5320812625
1"
#5320833791
0"
#5320836069
1"
#5320846871
0"
#5320871789
1"
#5320880917
0"
#5320894155
1"
#5320904216
0"
#5320923480
1"
#5320945499
0"
#5320960864
1"
#5320972377
0"
#5320999021
1"
#5321021599
0"
#5321029053
1"
#5321038000
0"
#5321050958
1"
#5321065303
0"
#5321083159
1"
#5321097575
0"
#5321102448
1"
#5321125837
0"
#5321149924
1"
#5321171620
0"
#5321192582
1"
#5321195675
0"
#5321202485
1"
#5321215588
0"
#5385616548
1"
#5385628869
0"
#5385663420
1"
#5385676317
0"
#5385696786
1"
#5385735377
0"
#5385756278
1"
#5385784156
0"
#5385803001
1"
#5385823416
0"
#5385843479
1"
#5385871456
0"
#5385893639
1"
#5385908427
0"
#5385934191
1"
#5385943283
0"
#5385976809
1"
#5386009274
0"
#5386025733
1"
#5386027622
0"
#5386042859
1"
#5386054182
0"
#5386064349
1"
#5386098599
0"
#5386103029
1"
#5386119932
0"
#5386147251
1"
#5386182327
0"
#5386191730
1"
#5386194372
0"
#5386217696
1"
#5386230424
0"
#5386247861
1"
#5386256156
0"
#5386294127
1"
#5386312445
0"
#5386329148
1"
#5386350770
0"
#5386383855
1"
#5386410345
0"
#5386426326
1"
#5386465163
0"
#5386507548
1"
#5386510835
0"
#5386542016
1"
#5386578747
0"
#5386602279
1"
#5386642517
0"
#5386661896
1"
#5386675708
0"
#5386683156
1"
#5386725113
0"
#5386751026
1"
#5386756463
0"
#5386788439
1"
#5386810278
0"
#5386844942
1"
#5386863040
0"
#5386867466
1"
#5386869415
0"
#5386870857
1"
#5386902655
0"
#5386943311
1"
#5386975934
0"
#5386988747
1"
#5387005816
0"
#5387008968
1"
#5387020839
0"
#5387032024
1"
#5387066735
0"
#5387091892
1"
#5387122371
0"
#5387147812
1"
#5387149672
0"
#5387160520
1"
#5387175440
0"
#5387185413
1"
#5387227877
0"
#5387259242
1"
#5387264595
0"
#5387289667
1"
#5387293875
0"
#5387327083
1"
#5387349199
0"
#5387358196
1"
#5387377636
0"
#5387408994
1"
#5387438235
0"
#5387450565
1"
#5387492564
0"
#5387497723
1"
#5387531920
0"
#5387557786
1"
#5387593769
0"
#5387602060
1"
#5387617408
0"
#5387646777
1"
#5387660868
0"
#5387683711
1"
#5387687185
0"
#5387710350
1"
#5387752709
0"
#5387781960
1"
#5500021000
1#
#5635999693
0"
#5636020082
1"
#5636043038
0"
#5636053278
1"
#5636067242
0"
#5636071172
1"
#5636072231
0"
#5636085031
1"
#5636089240
0"
#5636103863
1"
#5636104950
0"
#5636109896
1"
#5636113246
0"
#5636133683
1"
#5636153420
0"
#5636161527
1"
#5636176500
0"
#5636198618
1"
#5636217751
0"
#5636237523
1"
#5636252636
0"
#5636262229
1"
#5636285198
0"
#5636289620
1"
#5636290337
0"
#5636311235
1"
#5636332799
0"
#5636334442
1"
#5636340831
0"
#5636361572
1"
#5636366545
0"
#5636383506
1"
#5636392975
0"
#5636406395
1"
#5636419587
0"
#5636423984
1"
#5636434458
0"
#5636435283
1"
#5636447416
0"
#5636465860
1"
#5636478023
0"
#5636490514
1"
#5636509349
0"
#5636514935
1"
#5636536563
0"
#5636548906
1"
#5636556959
0"
#5636565837
1"
#5636571375
0"
#5636593181
1"
#5636608462
0"
#5636624302
1"
#5636644090
0"
#5636656600
1"
#5636664320
0"
#5636665472
1"
#5636686538
0"
#5636705358
1"
#5636713559
0"
#5636720735
1"
#5636738737
0"
#5636760570
1"
#5636773508
0"
#5636775267
1"
#5636798081
0"
#5636805174
1"
#5636815981
0"
#5636821477
1"
#5636841775
0"
#5636860964
1"
#5636864927
0"
#5636871352
1"
#5636889547
0"
#5636909138
1"
#5636929645
0"
#5636940159
1"
#5636952771
0"
#5636964345
1"
#5636980365
0"
#5637001822
1"
#5637007370
0"
#5637016607
1"
#5637016985
0"
#5637035788
1"
#5637056958
0"
#5637068572
1"
#5637083012
0"
#5637086228
1"
#5637105625
0"
#5637121356
1"
#5637127653
0"
#5637150527
1"
#5637163507
0"
#5637176824
1"
#5637198303
0"
#5637204983
1"
#5637210031
0"
#5637211487
1"
#5637219871
0"
#5637227602
1"
#5637241829
0"
#5637257994
1"
#5637259490
0"
#5637269214
1"
#5637277218
0"
#5637292962
1"
#5637293160
0"
#5637295124
1"
#5637315072
0"
#5637334758
1"
#5637343026
0"
#5637354537
1"
#5637366543
0"
#5637386019
1"
#5637401528
0"
#5637422992
1"
#5637438178
0"
#5637451144
1"
#5637460164
0"
#5637483139
1"
#5637496599
0"
#5637500747
1"
#5637516407
0"
#5637522179
1"
#5637533332
0"
#5637545661
1"
#5637568618
0"
#5637575575
1"
#5637594111
0"
#5637611798
1"
#5637626588
0"
#5637648741
1"
#5637668536
0"
#5637673072
1"
#5637679966
0"
#5637682326
1"
#5637703050
0"
#5637709189
1"
#5637731020
0"
#5637740000
1"
#5637742414
0"
#5637749926
1"
#5637762848
0"
#5637772765
1"
#5637781311
0"
#5637792867
1"
#5637795791
0"
#5637817160
1"
#5637829287
0"
#5637842455
1"
#5637862435
0"
#5637884687
1"
#5637907932
0"
#5637929646
1"
#5637949492
0"
#5637959667
1"
#5637971334
0"
#5637984304
1"
#5637994765
0"
#5638014804
1"
#5638016748
0"
#5638033806
1"
#5638055834
0"
#5638068714
1"
#5638084283
0"
#5638094782
1"
#5638095325
0"
#5638100386
1"
#5638102946
0"
#5638114876
1"
#5638132409
0"
#5638148969
1"
#5638151516
0"
#5638161381
1"
#5638162959
0"
#5638179749
1"
#5638184094
0"
#5638196396
1"
#5638201435
0"
#5638209106
1"
#5638226110
0"
#5638237090
1"
#5638258535
0"
#5638267894
1"
#5638269240
0"
#5638286011
1"
#5638305697
0"
#5638305990
1"
#5638316170
0"
#5685800458
1"
#5685817183
0"
#5685830352
1"
#5685843602
0"
#5685859020
1"
#5685883864
0"
#5685896680
1"
#5685908488
0"
#5685919281
1"
#5685945896
0"
#5685963948
1"
#5685975634
0"
#5685992823
1"
#5685993188
0"
#5686021161
1"
#5686032584
0"
#5686053829
1"
#5686069089
0"
#5686084897
1"
#5686085703
0"
#5686095047
1"
#5686099124
0"
#5686100251
1"
#5686110726
0"
#5686122024
1"
#5686122932
0"
#5686139521
1"
#5686141364
0"
#5686162349
1"
#5686190780
0"
#5686207591
1"
#5686215430
0"
#5686241365
1"
#5686243493
0"
#5686264020
1"
#5686270857
0"
#5686292851
1"
#5686314355
0"
#5686334704
1"
#5686338671
0"
#5686358269
1"
#5686379629
0"
#5686387486
1"
#5686395702
0"
#5686396976
1"
#5686399367
0"
#5686424951
1"
#5686446688
0"
#5686473929
1"
#5686474130
0"
#5686498957
1"
#5686510624
0"
#5686530726
1"
#5686539360
0"
#5686563015
1"
#5686567398
0"
#5686568648
1"
#5686584466
0"
#5686588968
1"
#5686598900
0"
#5686625530
1"
#5686644935
0"
#5686671037
1"
#5686690810
0"
#5686718460
1"
#5686732018
0"
#5686732468
1"
#5686740715
0"
#5686764170
1"
#5686777818
0"
#5686790815
1"
#5686796147
0"
#5686806687
1"
#5686828683
0"
#5686832744
1"
#5686857274
0"
#5686878715
1"
#5686883177
0"
#5686895075
1"
#5686924302
0"
#5686925044
1"
#5686952624
0"
#5686973807
1"
#5687000139
0"
#5687002975
1"
#5687010577
0"
#5687021772
1"
#5687037580
0"
#5687064223
1"
#5687083526
0"
#5687085342
1"
#5687091717
0"
#5687111400
1"
#5687132194
0"
#5687159653
1"
#5687163014
0"
#5687164310
1"
#5687167770
0"
#5687168754
1"
#5687185304
0"
#5687199780
1"
#5687217003
0"
#5687228879
1"
#5687245388
0"
#5687247533
1"
#5687250912
0"
#5687270344
1"
#5687271614
0"
#5687277683
1"
#5687304044
0"
#5687332843
1"
#5687342105
0"
#5687368810
1"
#5687396067
0"
#5687403201
1"
#5687431031
0"
#5687436671
1"
#5687449831
0"
#5687467477
1"
#5687481746
0"
#5687509933
1"
#5687520407
0"
#5687523709
1"
#5687534517
0"
#5687546451
1"
#5687554573
0"
#5687562310
1"
#5687571426
0"
#5687575936
1"
#5687598658
0"
#5687604226
1"
#5687611698
0"
#5687629711
1"
#5687647838
0"
#5687659119
1"
#5687674322
0"
#5687678005
1"
#5687680753
0"
#5687697801
1"
#5687721111
0"
#5687734625
1"
#5687738026
0"
#5687751053
1"
#5687761788
0"
#5687776315
1"
#5687780909
0"
#5687793035
1"
#5687806269
0"
#5687812998
1"
#6000052875
0#
#6302510331
0"
#6302548048
1"
#6302568137
0"
#6302596515
1"
#6302643269
0"
#6302655090
1"
#6302662633
0"
#6302712018
1"
#6302755973
0"
#6302775047
1"
#6302814958
0"
#6302823083
1"
#6302857023
0"
#6302877075
1"
#6302911832
0"
#6302955255
1"
#6302968214
0"
#6302996650
1"
#6303024576
0"
#6303064507
1"
#6303093801
0"
#6303136761
1"
#6303140371
0"
#6303175272
1"
#6303204954
0"
#6303206552
1"
#6303222325
0"
#6303241189
1"
#6303253738
0"
#6303258404
1"
#6303261258
0"
#6303283392
1"
#6303283582
0"
#6303298111
1"
#6303333763
0"
#6303356923
1"
#6303360127
0"
#6303403693
1"
#6303413568
0"
#6303440158
1"
#6303483633
0"
#6303501794
1"
#6303511602
0"
#6303553120
1"
#6303553558
0"
#6303577093
1"
#6303623936
0"
#6303665573
1"
#6303665893
0"
#6303669081
1"
#6303698596
0"
#6303713606
1"
#6303747709
0"
#6303771369
1"
#6303791557
0"
#6303811898
1"
#6303816061
0"
#6303829861
1"
#6303831786
0"
#6303856891
1"
#6303884480
0"
#6303889974
1"
#6303905119
0"
#6303930855
1"
#6303963055
0"
#6304015324
1"
#6304039351
0"
#6304055400
1"
#6304085966
0"
#6304105230
1"
#6304124105
0"
#6304155646
1"
#6304181068
0"
#6304232345
1"
#6304269814
0"
#6304275152
1"
#6304284115
0"
#6304322912
1"
#6304347805
0"
#6304358950
1"
#6304397712
0"
#6304399205
1"
#6304400344
0"
#6369385764
1"
#6369486874
0"
#6369626893
1"
#6369666967
0"
#6369781198
1"
#6369804896
0"
#6369856836
1"
#6369901528
0"
#6370001614
1"
#6370004462
0"
#6370135364
1"
#6370253770
0"
#6370350055
1"
#6370477626
0"
#6370557316
1"
#6370600068
0"
#6370616713
1"
#6370728049
0"
#6370773242
1"
#6370893823
0"
#6371012298
1"
#6371111764
0"
#6371143213
1"
#6371180809
0"
#6371285934
1"
#6371337888
0"
#6371363573
1"
#6371500957
0"
#6371624576
1"
#6371726977
0"
#6371772296
1"
#6500085000
1#
#7000116875
0#
#7069510094
0!
#7069523705
1!
#7069545327
0!
#7069574355
1!
#7069596940
0!
#7069607970
1!
#7069644725
0!
#7069674322
1!
#7069703923
0!
#7069739634
1!
#7069772683
0!
#7069788230
1!
#7069810905
0!
#7069851141
1!
#7069870567
0!
#7069887769
1!
#7069904130
0!
#7069937258
1!
#7069964313
0!
#7069994843
1!
#7070001872
0!
#7070003989
1!
#7070029587
0!
#7070053697
1!
#7070075547
0!
#7070085086
1!
#7070086795
0!
#7070114681
1!
#7070132664
0!
#7070153826
1!
#7070192509
0!
#7070200464
1!
#7070234456
0!
#7070258811
1!
#7070294182
0!
#7070309908
1!
#7070323638
0!
#7070326320
1!
#7070354622
0!
#7070388887
1!
#7070412137
0!
#7070416914
1!
#7070428051
0!
#7070436233
1!
#7070441839
0!
#7070465091
1!
#7070472432
0!
#7070500046
1!
#7070509597
0!
#7070550287
1!
#7070560969
0!
#7070588905
1!
#7070608456
0!
#7070629730
1!
#7070641875
0!
#7070656257
1!
#7070677071
0!
#7070704350
1!
#7070714041
0!
#7070717062
1!
#7070747650
0!
#7070763692
1!
#7070768979
0!
#7070792952
1!
#7070822273
0!
#7070854779
1!
#7070895403
0!
#7070933147
1!
#7070961434
0!
#7070974090
1!
#7070983210
0!
#7071000004
1!
#7071037800
0!
#7071078601
1!
#7071093506
0!
#7071114707
1!
#7071146450
0!
#7071177988
1!
#7071194756
0!
#7071221678
1!
#7071237850
0!
#7071240205
1!
#7071279519
0!
#7071302632
1!
#7071323764
0!
#7071352688
1!
#7071357046
0!
#7071389519
1!
#7071427602
0!
#7071442706
1!
#7071479618
0!
#7071495329
1!
#7071505092
0!
#7071534183
1!
#7071572395
0!
#7071582444
1!
#7071610550
0!
#7071632404
1!
#7071653291
0!
#7071656921
1!
#7071673143
0!
#7071699419
1!
#7071713167
0!
#7071740959
1!
#7071753049
0!
#7071754103
1!
#7071762639
0!
#7152999384
1!
#7153026126
0!
#7153088649
1!
#7153117887
0!
#7153130639
1!
#7153161184
0!
#7153200278
1!
#7153263019
0!
#7153285715
1!
#7153288852
0!
#7153308941
1!
#7153340377
0!
#7153380147
1!
#7153393940
0!
#7153405264
1!
#7153409441
0!
#7153422075
1!
#7153449291
0!
#7153473443
1!
#7153481000
0!
#7153505341
1!
#7153567918
0!
#7153574920
1!
#7153606863
0!
#7153612080
1!
#7153659350
0!
#7153703359
1!
#7153731325
0!
#7153776768
1!
#7153819982
0!
#7153827099
1!
#7153868424
0!
#7153920599
1!
#7153946506
0!
#7153993066
1!
#7154052819
0!
#7154110721
1!
#7154143696
0!
#7154176794
1!
#7154232368
0!
#7154244435
1!
#7154248723
0!
#7154296202
1!
#7154355619
0!
#7154369276
1!
#7154399784
0!
#7154446077
1!
#7154496761
0!
#7154515256
1!
#7154565599
0!
#7154586129
1!
#7154631088
0!
#7154668807
1!
#7154670114
0!
#7154707311
1!
#7154752995
0!
#7154787046
1!
#7154844126
0!
#7154889094
1!
#7154937258
0!
#7154975564
1!
#7155004747
0!
#7155041072
1!
#7155082179
0!
#7155112987
1!
#7500149062
1#
#7500159500
0$
#7803193250
1!
