Antonio_Miser_Lab1/wokwi-logic (2).vcd
$version Generated by Wokwi.com $end
$date Wed, 09 Apr 2025 16:26:06 GMT $end
$timescale 1ns $end
$scope module logic $end
$var wire 1 ! D1 $end
$var wire 1 " D2 $end
$var wire 1 # D3 $end
$upscope $end
$enddefinitions $end
#0
0!
#0
0"
#0
0#
#499701062
1"
#499711625
1#
#999733000
0"
#999743437
0#
#1499765000
1"
#1499775562
1#
#1999796875
0"
#1999807312
0#
#2101069562
1#
#2499829062
1"
#2999860875
0"
#3499893000
1"
#3999924875
0"
#4499957000
1"
#4999988937
0"
#4999999375
0#
#5435776500
1!
#5500021187
1"
#5500031750
1#
#6000053062
0"
#6000063500
0#
#6386209062
1#
#6386358625
0!
#6500085000
1"
#7000116875
0"
#7500149000
1"
#7586426375
0"
