Antonio_Miser_Lab1/wokwi-logic (1).vcd
$version Generated by Wokwi.com $end
$date Thu, 03 Apr 2025 15:44:33 GMT $end
$timescale 1ns $end
$scope module logic $end
$var wire 1 ! D0 $end
$var wire 1 " D1 $end
$var wire 1 # D2 $end
$upscope $end
$enddefinitions $end
#0
0!
#0
0"
#0
0#
#160875
1!
#165312
1"
#499700250
1#
#999732125
0#
#1383875347
0!
#1383910557
1!
#1383921271
0!
#1383939820
1!
#1383963897
0!
#1383967257
1!
#1384018096
0!
#1384059425
1!
#1384100092
0!
#1384106854
1!
#1384136750
1#
#1384151612
0!
#1384185761
1!
#1384235766
0!
#1384287440
1!
#1384309766
0!
#1384326597
1!
#1384378299
0!
#1384409426
1!
#1384426117
0!
#1384428443
1!
#1384452302
0!
#1384469763
1!
#1384482897
0!
#1384534277
1!
#1384564554
0!
#1384603409
1!
#1384619583
0!
#1384640575
1!
#1384681117
0!
#1384727928
1!
#1384765673
0!
#1384769221
1!
#1384803471
0!
#1384830536
1!
#1384844359
0!
#1384893584
1!
#1384910019
0!
#1384956396
1!
#1384998811
0!
#1385027533
1!
#1385068703
0!
#1385115242
1!
#1385115565
0!
#1385149933
1!
#1385150216
0!
#1385168952
1!
#1385218744
0!
#1385250676
1!
#1385297128
0!
#1385328820
1!
#1385358359
0!
#1385360612
1!
#1385399315
0!
#1385422751
1!
#1385460675
0!
#1385510531
1!
#1385521408
0!
#1385567269
1!
#1385617695
0!
#1385656058
1!
#1385706103
0!
#1385713555
1!
#1385743781
0!
#1385781121
1!
#1385785551
0!
#1385796501
1!
#1385846556
0!
#1385877612
1!
#1385920371
0!
#1385968698
1!
#1385998479
0!
#1386018714
1!
#1386046245
0!
#1386054095
1!
#1386083513
0!
#1386120550
1!
#1386151100
0!
#1386180038
1!
#1386223010
0!
#1386232898
1!
#1386272168
0!
#1386316303
1!
#1386345328
0!
#1467313734
1!
#1467349953
0!
#1467408544
1!
#1467432393
0!
#1467478347
1!
#1467541811
0!
#1467571417
1!
#1467594531
0!
#1467661000
1!
#1467738216
0!
#1467804813
1!
#1467834225
0!
#1467869758
1!
#1467872701
0!
#1467881784
1!
#1467956889
0!
#1467957475
1!
#1468002035
0!
#1468015414
1!
#1468022537
0!
#1468103023
1!
#1468141346
0!
#1468174529
1!
#1468183557
0!
#1468213296
1!
#1468257618
0!
#1468271058
1!
#1468348576
0!
#1468391208
1!
#1468392624
0!
#1468454567
1!
#1468509699
0!
#1468562668
1!
#1468619954
0!
#1468688190
1!
#1468746868
0!
#1468788135
1!
#1468813232
0!
#1468872498
1!
#1468936906
0!
#1468975436
1!
#1469031044
0!
#1469070227
1!
#1469124808
0!
#1469138026
1!
#1469182997
0!
#1469248487
1!
#1469317434
0!
#1469398074
1!
#1469417558
0!
#1469418652
1!
#1469432112
0!
#1469475901
1!
#1984498086
0"
#1984774441
1"
#1984891244
0"
#1985165175
1"
#1985512445
0"
#1985979467
1"
#1986252409
0"
#2067489566
1"
#2067502513
0"
#2067525063
1"
#2067539088
0"
#2067558643
1"
#2067564667
0"
#2067578269
1"
#2067579608
0"
#2067580783
1"
#2067591306
0"
#2067604637
1"
#2067618388
0"
#2067628876
1"
#2067636725
0"
#2067647530
1"
#2067663840
0"
#2067674834
1"
#2067694580
0"
#2067710942
1"
#2067733639
0"
#2067737502
1"
#2067754712
0"
#2067776963
1"
#2067792298
0"
#2067795152
1"
#2067806676
0"
#2067824449
1"
#2067845226
0"
#2067852744
1"
#2067857377
0"
#2067864488
1"
#2067875958
0"
#2067877027
1"
#2067881922
0"
#2067898662
1"
#2067911178
0"
#2067925003
1"
#2067946410
0"
#2067959878
1"
#2067961021
0"
#2067983158
1"
#2067994719
0"
#2067996227
1"
#2068001047
0"
#2068021039
1"
#2068031634
0"
#2068035419
1"
#2068038877
0"
#2068042456
1"
#2068055367
0"
#2068074218
1"
#2068091299
0"
#2068109415
1"
#2068114747
0"
#2068132069
1"
#2068147643
0"
#2068151611
1"
#2068155552
0"
#2068164020
1"
#2068168928
0"
#2068176385
1"
#2068188138
0"
#2068209996
1"
#2068219285
0"
#2068222415
1"
#2068241593
0"
#2068254199
1"
#2068275070
0"
#2068279845
1"
#2068288737
0"
#2068308962
1"
#2068315273
0"
#2068322273
1"
#2068344528
0"
#2068364683
1"
#2068374665
0"
#2068376443
1"
#2068376728
0"
#2068390846
1"
#2068400602
0"
#2068412115
1"
#2068433713
0"
#2068444071
1"
#2068450362
0"
#2068464114
1"
#2068483131
0"
#2068494452
1"
#2068510551
0"
#2068517534
1"
#2068532310
0"
#2068548706
1"
#2068564720
0"
#2068585317
1"
#2068588043
0"
#2068602159
1"
#2068623022
0"
#2068625764
1"
#2068648025
0"
#2068669573
1"
#2068689975
0"
#2068707878
1"
#2068730529
0"
#2068750096
1"
#2068766639
0"
#2068779261
1"
#2068781676
0"
#2068785941
1"
#2068794006
0"
#2068798429
1"
#2068799449
0"
#2068820506
1"
#2068824574
0"
#2068825177
1"
#2068834841
0"
#2068842626
1"
#2068859256
0"
#2068881020
1"
#2068884306
0"
#2068904062
1"
#2068912522
0"
#2068927899
1"
#2068945862
0"
#2068967068
1"
#2068980777
0"
#2069000733
1"
#2069006811
0"
#2069023458
1"
#2069025399
0"
#2069031513
1"
#2069042843
0"
#2069056560
1"
#2069057980
0"
#2069077111
1"
#2069087960
0"
#2069092405
1"
#2069104529
0"
#2069127030
1"
#2069134648
0"
#2069136763
1"
#2069151107
0"
#2069170418
1"
#2069172318
0"
#2069184676
1"
#2069189931
0"
#2069212164
1"
#2069216855
0"
#2069225428
1"
#2069244261
0"
#2069250607
1"
#2069267568
0"
#2069270623
1"
#2069281917
0"
#2069299710
1"
#2069301814
0"
#2069323279
1"
#2069327719
0"
#2069335858
1"
#2069355573
0"
#2069363026
1"
#2069369593
0"
#2069370582
1"
#2069382409
0"
#2069390813
1"
#2069409754
0"
#2069413674
1"
#2069424666
0"
#2069429823
1"
#2069442926
0"
#2069461999
1"
#2069466942
0"
#2069478305
1"
#2069479327
0"
#2069480913
1"
#2069493852
0"
#2069493952
1"
#2069500794
0"
#2069500966
1"
#2069520379
0"
#2069531577
1"
#2069553737
0"
#2069561405
1"
#2069564953
0"
#2069571727
1"
#2069579270
0"
#2069580158
1"
#2069596877
0"
#2069601774
1"
#2069612118
0"
#2069630240
1"
#2069637759
0"
#2069641762
1"
#2069646129
0"
#2069658419
1"
#2701197693
0!
#2701232878
1!
#2701250084
0!
#2701408039
1!
#2701567877
0!
#2701816428
1!
#2702068154
0!
#2702512315
1!
#2702994755
0!
#2751250756
1!
#2751254537
0!
#2751260222
1!
#2751284164
0!
#2751315379
1!
#2751360285
0!
#2751409529
1!
#2751435865
0!
#2751441319
1!
#2751513055
0!
#2751526102
1!
#2751621051
0!
#2751623576
1!
#2751660874
0!
#2751715093
1!
#2751809456
0!
#2751852600
1!
#2751876694
0!
#2751893492
1!
#2751926388
0!
#2751994875
1!
#2752054946
0!
#2752125797
1!
#2752178315
0!
#2752212955
1!
#2752285000
0!
#2752295538
1!
#2752343114
0!
#2752351213
1!
#2752423069
0!
#2752449103
1!
#2752536536
0!
#2752626308
1!
#2752693779
0!
#2752767086
1!
#2752781833
0!
#2752793293
1!
#2752843690
0!
#2752933786
1!
#2753027969
0!
#2753061357
1!
#2753075034
0!
#2753093567
1!
#2753167862
0!
#2753212600
1!
#2999860125
0#
#3401498055
0"
#3401504697
1"
#3401507273
0"
#3401529415
1"
#3401560657
0"
#3401573592
1"
#3401594490
0"
#3401622311
1"
#3401635057
0"
#3401644531
1"
#3401664599
0"
#3401699517
1"
#3401735616
0"
#3401736738
1"
#3401750821
0"
#3401773111
1"
#3401811336
0"
#3401843291
1"
#3401876214
0"
#3401904161
1"
#3401935876
0"
#3401943830
1"
#3401976882
0"
#3401995021
1"
#3402019938
0"
#3402037870
1"
#3402044046
0"
#3402049887
1"
#3402055624
0"
#3402087642
1"
#3402097173
0"
#3402109847
1"
#3402138904
0"
#3402176829
1"
#3402199839
0"
#3402217541
1"
#3402248726
0"
#3402263970
1"
#3402278473
0"
#3402281069
1"
#3402319614
0"
#3402340750
1"
#3402367667
0"
#3402377540
1"
#3402410627
0"
#3402429869
1"
#3402458605
0"
#3402481962
1"
#3402496505
0"
#3402509801
1"
#3402519150
0"
#3402546955
1"
#3402585596
0"
#3402594726
1"
#3402615912
0"
#3402628915
1"
#3402650518
0"
#3402668791
1"
#3402701505
0"
#3402730636
1"
#3402764516
0"
#3402790284
1"
#3402811572
0"
#3402843524
1"
#3402867586
0"
#3402883284
1"
#3402906851
0"
#3402937887
1"
#3402961260
0"
#3402997444
1"
#3403001230
0"
#3403006708
1"
#3403007271
0"
#3403024285
1"
#3403029338
0"
#3403039546
1"
#3403070779
0"
#3403077703
1"
#3403094561
0"
#3403108537
1"
#3403123733
0"
#3403146551
1"
#3403182683
0"
#3403214551
1"
#3403236748
0"
#3403256774
1"
#3403266319
0"
#3403275887
1"
#3403295218
0"
#3403307607
1"
#3403328754
0"
#3403342171
1"
#3403374150
0"
#3403404282
1"
#3403419657
0"
#3403450284
1"
#3403469083
0"
#3403497664
1"
#3403518798
0"
#3403529369
1"
#3403562508
0"
#3403590325
1"
#3403626563
0"
#3403646740
1"
#3403647102
0"
#3403657320
1"
#3403670309
0"
#3403674619
1"
#3403695458
0"
#3403712166
1"
#3403731268
0"
#3403755747
1"
#3403768714
0"
#3451412324
1"
#3451420287
0"
#3451450363
1"
#3451468000
0"
#3451485451
1"
#3451498570
0"
#3451513215
1"
#3451545686
0"
#3451569426
1"
#3451612794
0"
#3451623960
1"
#3451673226
0"
#3451701405
1"
#3451743317
0"
#3451750799
1"
#3451782356
0"
#3451811461
1"
#3451859509
0"
#3451884174
1"
#3451918140
0"
#3451930932
1"
#3451956324
0"
#3451994421
1"
#3452028971
0"
#3452060389
1"
#3452081787
0"
#3452096646
1"
#3452113169
0"
#3452159388
1"
#3452165657
0"
#3452194524
1"
#3452226558
0"
#3452260430
1"
#3452296112
0"
#3452302438
1"
#3452334385
0"
#3452344045
1"
#3452386891
0"
#3452433501
1"
#3452462007
0"
#3452504418
1"
#3452512870
0"
#3452532192
1"
#3452580497
0"
#3452594306
1"
#3452635356
0"
#3452661195
1"
#3452690983
0"
#3452693271
1"
#3452717937
0"
#3452731949
1"
#3452780990
0"
#3452784320
1"
#3452789234
0"
#3452804905
1"
#3452847117
0"
#3452895275
1"
#3452936840
0"
#3452951257
1"
#3452976946
0"
#3452993167
1"
#3453001981
0"
#3453029891
1"
#3453041283
0"
#3453063351
1"
#3453096156
0"
#3453135477
1"
#3453144209
0"
#3453146623
1"
#3453188565
0"
#3453197088
1"
#3453204125
0"
#3453212546
1"
#3453225361
0"
#3453244458
1"
#3453281410
0"
#3453284161
1"
#3453313609
0"
#3453329486
1"
#3453351552
0"
#3453397955
1"
#3453423240
0"
#3453465417
1"
#3453481646
0"
#3453505718
1"
#3453529215
0"
#3453559827
1"
#3453606503
0"
#3453616076
1"
#3499892250
1#
#3999924125
0#
#4018382062
1!
